{
  "transactions": [
    {
      "hash": null,
      "transactionType": "CALL",
      "contractName": null,
      "contractAddress": "0xf7A29000cC2d0FAB78605De87761EA53ec6E9442",
      "function": null,
      "arguments": null,
      "transaction": {
        "type": "0x02",
        "from": "0xc789bbc077ddaa59b9dac1fae6fddda20cc664d7",
        "to": "0xf7a29000cc2d0fab78605de87761ea53ec6e9442",
        "gas": "0x58789",
        "value": "0x0",
        "data": "0xa04c2e15000000000000000000000000c5e7696551f0bf0ee1ae688bd04485ea0bf3a564",
        "nonce": "0x2f",
        "accessList": []
      },
      "additionalContracts": [],
      "isFixedGasLimit": false
    }
  ],
  "receipts": [],
  "libraries": [],
  "pending": [],
  "returns": {},
  "timestamp": 1693721726,
  "chain": 42161,
  "multi": false,
  "commit": "bc787bd"
}