{
  "transactions": [
    {
      "hash": null,
      "transactionType": "CALL",
      "contractName": null,
      "contractAddress": "0x9D64eF9E402C11Df6f97cAf8A19fE6fA408732ff",
      "function": null,
      "arguments": null,
      "transaction": {
        "type": "0x02",
        "from": "0xc789bbc077ddaa59b9dac1fae6fddda20cc664d7",
        "to": "0x9d64ef9e402c11df6f97caf8a19fe6fa408732ff",
        "gas": "0x57e94",
        "value": "0x0",
        "data": "0x75829def000000000000000000000000a1a389eec7fea1d94b8b58b102c6bdf7d2056676",
        "nonce": "0x35",
        "accessList": []
      },
      "additionalContracts": [],
      "isFixedGasLimit": false
    }
  ],
  "receipts": [],
  "libraries": [],
  "pending": [],
  "returns": {},
  "timestamp": 1693880248,
  "chain": 42161,
  "multi": false,
  "commit": "bc787bd"
}