{
  "transactions": [
    {
      "hash": null,
      "transactionType": "CALL",
      "contractName": null,
      "contractAddress": "0x773535469395874Aa6c370a5861DF13881509cea",
      "function": null,
      "arguments": null,
      "transaction": {
        "type": "0x02",
        "from": "0x85752248d8cca2d9321f0278fc785738e1236ce4",
        "to": "0x773535469395874aa6c370a5861df13881509cea",
        "gas": "0x11fb0",
        "value": "0x0",
        "data": "0x095ea7b3000000000000000000000000368e498cfce65888ca0b36aa3220edf385bdef4600000000000000000000000000000000000000000000000000038d7ea4c68000",
        "nonce": "0x686",
        "accessList": []
      },
      "additionalContracts": [],
      "isFixedGasLimit": false
    },
    {
      "hash": null,
      "transactionType": "CALL",
      "contractName": null,
      "contractAddress": "0x368E498CfCe65888Ca0b36aa3220eDf385bdEF46",
      "function": null,
      "arguments": null,
      "transaction": {
        "type": "0x02",
        "from": "0x85752248d8cca2d9321f0278fc785738e1236ce4",
        "to": "0x368e498cfce65888ca0b36aa3220edf385bdef46",
        "gas": "0x51c63",
        "value": "0x0",
        "data": "0x338b5dea000000000000000000000000773535469395874aa6c370a5861df13881509cea00000000000000000000000000000000000000000000000000038d7ea4c68000",
        "nonce": "0x687",
        "accessList": []
      },
      "additionalContracts": [],
      "isFixedGasLimit": false
    }
  ],
  "receipts": [],
  "libraries": [],
  "pending": [],
  "returns": {},
  "timestamp": 1695075750,
  "chain": 421613,
  "multi": false,
  "commit": "c7ccaef"
}