{
  "transactions": [
    {
      "hash": null,
      "transactionType": "CALL",
      "contractName": null,
      "contractAddress": "0x9839F4ebd2CDC5064D5f4a15231947feaC68D747",
      "function": null,
      "arguments": null,
      "transaction": {
        "type": "0x02",
        "from": "0x85752248d8cca2d9321f0278fc785738e1236ce4",
        "to": "0x9839f4ebd2cdc5064d5f4a15231947feac68d747",
        "gas": "0xf83a",
        "value": "0x0",
        "data": "0xd710442a000000000000000000000000000000000000000000000000000000000001388100000000000000000000000000000000000000000000000000000000000000000000000000000000000000000000000000000000000000000000000000000012",
        "nonce": "0x330",
        "accessList": []
      },
      "additionalContracts": [],
      "isFixedGasLimit": false
    },
    {
      "hash": null,
      "transactionType": "CALL",
      "contractName": null,
      "contractAddress": "0x7De0194878dcb44A7713F3598624A817aCB0bD74",
      "function": null,
      "arguments": null,
      "transaction": {
        "type": "0x02",
        "from": "0x85752248d8cca2d9321f0278fc785738e1236ce4",
        "to": "0x7de0194878dcb44a7713f3598624a817acb0bd74",
        "gas": "0x2153a",
        "value": "0x0",
        "data": "0xee39043c0000000000000000000000000000000000000000000000000000000000013881000000000000000000000000000000000000000000000000000000000000000000000000000000000000000000000000000000000000000007980b8035180000",
        "nonce": "0x331",
        "accessList": []
      },
      "additionalContracts": [],
      "isFixedGasLimit": false
    }
  ],
  "receipts": [],
  "libraries": [],
  "pending": [],
  "returns": {},
  "timestamp": 1693099635,
  "chain": 421613,
  "multi": false,
  "commit": "47a96f1"
}