{
  "transactions": [
    {
      "hash": null,
      "transactionType": "CALL",
      "contractName": null,
      "contractAddress": "0xDAC904491d2C4AcD064E9E40F7171eBe3CEFad8B",
      "function": null,
      "arguments": null,
      "transaction": {
        "type": "0x02",
        "from": "0x85752248d8cca2d9321f0278fc785738e1236ce4",
        "to": "0xdac904491d2c4acd064e9e40f7171ebe3cefad8b",
        "gas": "0xf87a",
        "value": "0x0",
        "data": "0xd710442a000000000000000000000000000000000000000000000000000000000000006100000000000000000000000000000000000000000000000000000000000000000000000000000000000000000000000000000000000000000000000000000012",
        "nonce": "0x709",
        "accessList": []
      },
      "additionalContracts": [],
      "isFixedGasLimit": false
    },
    {
      "hash": null,
      "transactionType": "CALL",
      "contractName": null,
      "contractAddress": "0x05273EC27DD9dBc3F0F4027EC87eDA781D63dD1A",
      "function": null,
      "arguments": null,
      "transaction": {
        "type": "0x02",
        "from": "0x85752248d8cca2d9321f0278fc785738e1236ce4",
        "to": "0x05273ec27dd9dbc3f0f4027ec87eda781d63dd1a",
        "gas": "0x2155d",
        "value": "0x0",
        "data": "0xee39043c0000000000000000000000000000000000000000000000000000000000000061000000000000000000000000000000000000000000000000000000000000000000000000000000000000000000000000000000000000000bbb4ac46922490000",
        "nonce": "0x70a",
        "accessList": []
      },
      "additionalContracts": [],
      "isFixedGasLimit": false
    },
    {
      "hash": null,
      "transactionType": "CALL",
      "contractName": null,
      "contractAddress": "0xDAC904491d2C4AcD064E9E40F7171eBe3CEFad8B",
      "function": null,
      "arguments": null,
      "transaction": {
        "type": "0x02",
        "from": "0x85752248d8cca2d9321f0278fc785738e1236ce4",
        "to": "0xdac904491d2c4acd064e9e40f7171ebe3cefad8b",
        "gas": "0xf9b2",
        "value": "0x0",
        "data": "0xd710442a000000000000000000000000000000000000000000000000000000000000006100000000000000000000000057546f95163291b04588a2abdc1feb0fa215561a0000000000000000000000000000000000000000000000000000000000000012",
        "nonce": "0x70b",
        "accessList": []
      },
      "additionalContracts": [],
      "isFixedGasLimit": false
    },
    {
      "hash": null,
      "transactionType": "CALL",
      "contractName": null,
      "contractAddress": "0x05273EC27DD9dBc3F0F4027EC87eDA781D63dD1A",
      "function": null,
      "arguments": null,
      "transaction": {
        "type": "0x02",
        "from": "0x85752248d8cca2d9321f0278fc785738e1236ce4",
        "to": "0x05273ec27dd9dbc3f0f4027ec87eda781d63dd1a",
        "gas": "0x2360b",
        "value": "0x0",
        "data": "0xee39043c000000000000000000000000000000000000000000000000000000000000006100000000000000000000000057546f95163291b04588a2abdc1feb0fa215561a0000000000000000000000000000000000000000000000000de0b6b3a7640000",
        "nonce": "0x70c",
        "accessList": []
      },
      "additionalContracts": [],
      "isFixedGasLimit": false
    }
  ],
  "receipts": [],
  "libraries": [],
  "pending": [],
  "returns": {},
  "timestamp": 1695601387,
  "chain": 421613,
  "multi": false,
  "commit": "c7ccaef"
}