{
  "transactions": [
    {
      "hash": null,
      "transactionType": "CALL",
      "contractName": null,
      "contractAddress": "0x0A7554e48D6176B70e76C867035781523A879D07",
      "function": null,
      "arguments": null,
      "transaction": {
        "type": "0x02",
        "from": "0x85752248d8cca2d9321f0278fc785738e1236ce4",
        "to": "0x0a7554e48d6176b70e76c867035781523a879d07",
        "gas": "0xf83a",
        "value": "0x0",
        "data": "0xd710442a000000000000000000000000000000000000000000000000000000000001388100000000000000000000000000000000000000000000000000000000000000000000000000000000000000000000000000000000000000000000000000000012",
        "nonce": "0x370",
        "accessList": []
      },
      "additionalContracts": [],
      "isFixedGasLimit": false
    },
    {
      "hash": null,
      "transactionType": "CALL",
      "contractName": null,
      "contractAddress": "0x540e9f2c178AbdDC38bE0539F016504bc739B420",
      "function": null,
      "arguments": null,
      "transaction": {
        "type": "0x02",
        "from": "0x85752248d8cca2d9321f0278fc785738e1236ce4",
        "to": "0x540e9f2c178abddc38be0539f016504bc739b420",
        "gas": "0x2153a",
        "value": "0x0",
        "data": "0xee39043c0000000000000000000000000000000000000000000000000000000000013881000000000000000000000000000000000000000000000000000000000000000000000000000000000000000000000000000000000000000007980b8035180000",
        "nonce": "0x371",
        "accessList": []
      },
      "additionalContracts": [],
      "isFixedGasLimit": false
    }
  ],
  "receipts": [],
  "libraries": [],
  "pending": [],
  "returns": {},
  "timestamp": 1693111973,
  "chain": 421613,
  "multi": false,
  "commit": "47a96f1"
}