{
  "transactions": [
    {
      "hash": null,
      "transactionType": "CALL",
      "contractName": null,
      "contractAddress": "0x8b72210866660cB4B8efF1fBDe3EA7217e4fF86A",
      "function": null,
      "arguments": null,
      "transaction": {
        "type": "0x02",
        "from": "0x85752248d8cca2d9321f0278fc785738e1236ce4",
        "to": "0x8b72210866660cb4b8eff1fbde3ea7217e4ff86a",
        "gas": "0xf825",
        "value": "0x0",
        "data": "0xd710442a000000000000000000000000000000000000000000000000000000000000006100000000000000000000000000000000000000000000000000000000000000000000000000000000000000000000000000000000000000000000000000000012",
        "nonce": "0x5bb",
        "accessList": []
      },
      "additionalContracts": [],
      "isFixedGasLimit": false
    },
    {
      "hash": null,
      "transactionType": "CALL",
      "contractName": null,
      "contractAddress": "0x462b76B57e13A4070Ece9f5d21f6C0D2E19BbAf0",
      "function": null,
      "arguments": null,
      "transaction": {
        "type": "0x02",
        "from": "0x85752248d8cca2d9321f0278fc785738e1236ce4",
        "to": "0x462b76b57e13a4070ece9f5d21f6c0d2e19bbaf0",
        "gas": "0x2157b",
        "value": "0x0",
        "data": "0xee39043c0000000000000000000000000000000000000000000000000000000000000061000000000000000000000000000000000000000000000000000000000000000000000000000000000000000000000000000000000000000bbb4ac46922490000",
        "nonce": "0x5bc",
        "accessList": []
      },
      "additionalContracts": [],
      "isFixedGasLimit": false
    },
    {
      "hash": null,
      "transactionType": "CALL",
      "contractName": null,
      "contractAddress": "0x8b72210866660cB4B8efF1fBDe3EA7217e4fF86A",
      "function": null,
      "arguments": null,
      "transaction": {
        "type": "0x02",
        "from": "0x85752248d8cca2d9321f0278fc785738e1236ce4",
        "to": "0x8b72210866660cb4b8eff1fbde3ea7217e4ff86a",
        "gas": "0xf95d",
        "value": "0x0",
        "data": "0xd710442a000000000000000000000000000000000000000000000000000000000000006100000000000000000000000057546f95163291b04588a2abdc1feb0fa215561a0000000000000000000000000000000000000000000000000000000000000012",
        "nonce": "0x5bd",
        "accessList": []
      },
      "additionalContracts": [],
      "isFixedGasLimit": false
    },
    {
      "hash": null,
      "transactionType": "CALL",
      "contractName": null,
      "contractAddress": "0x462b76B57e13A4070Ece9f5d21f6C0D2E19BbAf0",
      "function": null,
      "arguments": null,
      "transaction": {
        "type": "0x02",
        "from": "0x85752248d8cca2d9321f0278fc785738e1236ce4",
        "to": "0x462b76b57e13a4070ece9f5d21f6c0d2e19bbaf0",
        "gas": "0x216b7",
        "value": "0x0",
        "data": "0xee39043c000000000000000000000000000000000000000000000000000000000000006100000000000000000000000057546f95163291b04588a2abdc1feb0fa215561a0000000000000000000000000000000000000000000000000de0b6b3a7640000",
        "nonce": "0x5be",
        "accessList": []
      },
      "additionalContracts": [],
      "isFixedGasLimit": false
    }
  ],
  "receipts": [],
  "libraries": [],
  "pending": [],
  "returns": {},
  "timestamp": 1693557221,
  "chain": 421613,
  "multi": false,
  "commit": "3fbbd65"
}