{
  "transactions": [
    {
      "hash": null,
      "transactionType": "CALL",
      "contractName": null,
      "contractAddress": "0x95F70BE5752f7A586871dc4BDbf164D9F09C7c28",
      "function": null,
      "arguments": null,
      "transaction": {
        "type": "0x02",
        "from": "0x85752248d8cca2d9321f0278fc785738e1236ce4",
        "to": "0x95f70be5752f7a586871dc4bdbf164d9f09c7c28",
        "gas": "0xf81b",
        "value": "0x0",
        "data": "0xd710442a000000000000000000000000000000000000000000000000000000000000006100000000000000000000000000000000000000000000000000000000000000000000000000000000000000000000000000000000000000000000000000000012",
        "nonce": "0x34a",
        "accessList": []
      },
      "additionalContracts": [],
      "isFixedGasLimit": false
    },
    {
      "hash": null,
      "transactionType": "CALL",
      "contractName": null,
      "contractAddress": "0x46c4f7E072a20d009f78089D0a03864efC406c4c",
      "function": null,
      "arguments": null,
      "transaction": {
        "type": "0x02",
        "from": "0x85752248d8cca2d9321f0278fc785738e1236ce4",
        "to": "0x46c4f7e072a20d009f78089d0a03864efc406c4c",
        "gas": "0x23487",
        "value": "0x0",
        "data": "0xee39043c0000000000000000000000000000000000000000000000000000000000000061000000000000000000000000000000000000000000000000000000000000000000000000000000000000000000000000000000000000000bbb4ac46922490000",
        "nonce": "0x34b",
        "accessList": []
      },
      "additionalContracts": [],
      "isFixedGasLimit": false
    },
    {
      "hash": null,
      "transactionType": "CALL",
      "contractName": null,
      "contractAddress": "0x95F70BE5752f7A586871dc4BDbf164D9F09C7c28",
      "function": null,
      "arguments": null,
      "transaction": {
        "type": "0x02",
        "from": "0x85752248d8cca2d9321f0278fc785738e1236ce4",
        "to": "0x95f70be5752f7a586871dc4bdbf164d9f09c7c28",
        "gas": "0xf953",
        "value": "0x0",
        "data": "0xd710442a000000000000000000000000000000000000000000000000000000000000006100000000000000000000000057546f95163291b04588a2abdc1feb0fa215561a0000000000000000000000000000000000000000000000000000000000000012",
        "nonce": "0x34c",
        "accessList": []
      },
      "additionalContracts": [],
      "isFixedGasLimit": false
    },
    {
      "hash": null,
      "transactionType": "CALL",
      "contractName": null,
      "contractAddress": "0x46c4f7E072a20d009f78089D0a03864efC406c4c",
      "function": null,
      "arguments": null,
      "transaction": {
        "type": "0x02",
        "from": "0x85752248d8cca2d9321f0278fc785738e1236ce4",
        "to": "0x46c4f7e072a20d009f78089d0a03864efc406c4c",
        "gas": "0x21665",
        "value": "0x0",
        "data": "0xee39043c000000000000000000000000000000000000000000000000000000000000006100000000000000000000000057546f95163291b04588a2abdc1feb0fa215561a0000000000000000000000000000000000000000000000000de0b6b3a7640000",
        "nonce": "0x34d",
        "accessList": []
      },
      "additionalContracts": [],
      "isFixedGasLimit": false
    }
  ],
  "receipts": [],
  "libraries": [],
  "pending": [],
  "returns": {},
  "timestamp": 1693101116,
  "chain": 421613,
  "multi": false,
  "commit": "47a96f1"
}