{
  "transactions": [
    {
      "hash": null,
      "transactionType": "CALL",
      "contractName": null,
      "contractAddress": "0xe86B2e984A2Fe77E1BDdAE87591759c6E58Eb6E0",
      "function": null,
      "arguments": null,
      "transaction": {
        "type": "0x02",
        "from": "0x85752248d8cca2d9321f0278fc785738e1236ce4",
        "to": "0xe86b2e984a2fe77e1bddae87591759c6e58eb6e0",
        "gas": "0xf899",
        "value": "0x0",
        "data": "0xd710442a000000000000000000000000000000000000000000000000000000000001388100000000000000000000000000000000000000000000000000000000000000000000000000000000000000000000000000000000000000000000000000000012",
        "nonce": "0x72a",
        "accessList": []
      },
      "additionalContracts": [],
      "isFixedGasLimit": false
    },
    {
      "hash": null,
      "transactionType": "CALL",
      "contractName": null,
      "contractAddress": "0xB0A6ff962080da707aA674340B2B708B3B1Be24a",
      "function": null,
      "arguments": null,
      "transaction": {
        "type": "0x02",
        "from": "0x85752248d8cca2d9321f0278fc785738e1236ce4",
        "to": "0xb0a6ff962080da707aa674340b2b708b3b1be24a",
        "gas": "0x234cf",
        "value": "0x0",
        "data": "0xee39043c0000000000000000000000000000000000000000000000000000000000013881000000000000000000000000000000000000000000000000000000000000000000000000000000000000000000000000000000000000000007980b8035180000",
        "nonce": "0x72b",
        "accessList": []
      },
      "additionalContracts": [],
      "isFixedGasLimit": false
    }
  ],
  "receipts": [],
  "libraries": [],
  "pending": [],
  "returns": {},
  "timestamp": 1695604261,
  "chain": 421613,
  "multi": false,
  "commit": "c7ccaef"
}