{
  "transactions": [
    {
      "hash": null,
      "transactionType": "CALL",
      "contractName": null,
      "contractAddress": "0x31AB9241a906eDc6DC405f5A8Dd6a3860032cEbb",
      "function": null,
      "arguments": null,
      "transaction": {
        "type": "0x02",
        "from": "0x85752248d8cca2d9321f0278fc785738e1236ce4",
        "to": "0x31ab9241a906edc6dc405f5a8dd6a3860032cebb",
        "gas": "0xf9b2",
        "value": "0x0",
        "data": "0xd710442a000000000000000000000000000000000000000000000000000000000000000500000000000000000000000035fb82010631da230859b7ac0b34fbedb6592e3d0000000000000000000000000000000000000000000000000000000000000012",
        "nonce": "0x6c7",
        "accessList": []
      },
      "additionalContracts": [],
      "isFixedGasLimit": false
    },
    {
      "hash": null,
      "transactionType": "CALL",
      "contractName": null,
      "contractAddress": "0x41834CFe51AA54ed1fC59328E04d5eB098D54e5c",
      "function": null,
      "arguments": null,
      "transaction": {
        "type": "0x02",
        "from": "0x85752248d8cca2d9321f0278fc785738e1236ce4",
        "to": "0x41834cfe51aa54ed1fc59328e04d5eb098d54e5c",
        "gas": "0x2360b",
        "value": "0x0",
        "data": "0xee39043c000000000000000000000000000000000000000000000000000000000000000500000000000000000000000035fb82010631da230859b7ac0b34fbedb6592e3d0000000000000000000000000000000000000000000000000214e8348c4f0000",
        "nonce": "0x6c8",
        "accessList": []
      },
      "additionalContracts": [],
      "isFixedGasLimit": false
    }
  ],
  "receipts": [],
  "libraries": [],
  "pending": [],
  "returns": {},
  "timestamp": 1695423524,
  "chain": 421613,
  "multi": false,
  "commit": "c7ccaef"
}