{
  "transactions": [
    {
      "hash": null,
      "transactionType": "CALL",
      "contractName": null,
      "contractAddress": "0x954f9332c846F984D4983B878789828C63CC79E1",
      "function": null,
      "arguments": null,
      "transaction": {
        "type": "0x02",
        "from": "0x85752248d8cca2d9321f0278fc785738e1236ce4",
        "to": "0x954f9332c846f984d4983b878789828c63cc79e1",
        "gas": "0xf87a",
        "value": "0x0",
        "data": "0xd710442a000000000000000000000000000000000000000000000000000000000000000500000000000000000000000000000000000000000000000000000000000000000000000000000000000000000000000000000000000000000000000000000012",
        "nonce": "0x674",
        "accessList": []
      },
      "additionalContracts": [],
      "isFixedGasLimit": false
    },
    {
      "hash": null,
      "transactionType": "CALL",
      "contractName": null,
      "contractAddress": "0x4058983db2CdbF577fAa83B2Cf1bf14773Cd8E31",
      "function": null,
      "arguments": null,
      "transaction": {
        "type": "0x02",
        "from": "0x85752248d8cca2d9321f0278fc785738e1236ce4",
        "to": "0x4058983db2cdbf577faa83b2cf1bf14773cd8e31",
        "gas": "0x2155d",
        "value": "0x0",
        "data": "0xee39043c0000000000000000000000000000000000000000000000000000000000000005000000000000000000000000000000000000000000000000000000000000000000000000000000000000000000000000000000000000006663f303de1e8d0000",
        "nonce": "0x675",
        "accessList": []
      },
      "additionalContracts": [],
      "isFixedGasLimit": false
    },
    {
      "hash": null,
      "transactionType": "CALL",
      "contractName": null,
      "contractAddress": "0x954f9332c846F984D4983B878789828C63CC79E1",
      "function": null,
      "arguments": null,
      "transaction": {
        "type": "0x02",
        "from": "0x85752248d8cca2d9321f0278fc785738e1236ce4",
        "to": "0x954f9332c846f984d4983b878789828c63cc79e1",
        "gas": "0xf9b2",
        "value": "0x0",
        "data": "0xd710442a0000000000000000000000000000000000000000000000000000000000000005000000000000000000000000b0202b94597f54112ee407cf454fdb25dc1dd7590000000000000000000000000000000000000000000000000000000000000006",
        "nonce": "0x676",
        "accessList": []
      },
      "additionalContracts": [],
      "isFixedGasLimit": false
    },
    {
      "hash": null,
      "transactionType": "CALL",
      "contractName": null,
      "contractAddress": "0x4058983db2CdbF577fAa83B2Cf1bf14773Cd8E31",
      "function": null,
      "arguments": null,
      "transaction": {
        "type": "0x02",
        "from": "0x85752248d8cca2d9321f0278fc785738e1236ce4",
        "to": "0x4058983db2cdbf577faa83b2cf1bf14773cd8e31",
        "gas": "0x2360b",
        "value": "0x0",
        "data": "0xee39043c0000000000000000000000000000000000000000000000000000000000000005000000000000000000000000b0202b94597f54112ee407cf454fdb25dc1dd7590000000000000000000000000000000000000000000000000de0b6b3a7640000",
        "nonce": "0x677",
        "accessList": []
      },
      "additionalContracts": [],
      "isFixedGasLimit": false
    },
    {
      "hash": null,
      "transactionType": "CALL",
      "contractName": null,
      "contractAddress": "0x954f9332c846F984D4983B878789828C63CC79E1",
      "function": null,
      "arguments": null,
      "transaction": {
        "type": "0x02",
        "from": "0x85752248d8cca2d9321f0278fc785738e1236ce4",
        "to": "0x954f9332c846f984d4983b878789828c63cc79e1",
        "gas": "0xf9b2",
        "value": "0x0",
        "data": "0xd710442a000000000000000000000000000000000000000000000000000000000000000500000000000000000000000035fb82010631da230859b7ac0b34fbedb6592e3d0000000000000000000000000000000000000000000000000000000000000012",
        "nonce": "0x678",
        "accessList": []
      },
      "additionalContracts": [],
      "isFixedGasLimit": false
    },
    {
      "hash": null,
      "transactionType": "CALL",
      "contractName": null,
      "contractAddress": "0x4058983db2CdbF577fAa83B2Cf1bf14773Cd8E31",
      "function": null,
      "arguments": null,
      "transaction": {
        "type": "0x02",
        "from": "0x85752248d8cca2d9321f0278fc785738e1236ce4",
        "to": "0x4058983db2cdbf577faa83b2cf1bf14773cd8e31",
        "gas": "0x2360b",
        "value": "0x0",
        "data": "0xee39043c000000000000000000000000000000000000000000000000000000000000000500000000000000000000000035fb82010631da230859b7ac0b34fbedb6592e3d0000000000000000000000000000000000000000000000000214e8348c4f0000",
        "nonce": "0x679",
        "accessList": []
      },
      "additionalContracts": [],
      "isFixedGasLimit": false
    }
  ],
  "receipts": [],
  "libraries": [],
  "pending": [],
  "returns": {},
  "timestamp": 1695073478,
  "chain": 421613,
  "multi": false,
  "commit": "c7ccaef"
}