{
  "transactions": [
    {
      "hash": null,
      "transactionType": "CALL",
      "contractName": null,
      "contractAddress": "0xA5fCe578a2378eDC58489456000a92913Aea374e",
      "function": null,
      "arguments": null,
      "transaction": {
        "type": "0x02",
        "from": "0x85752248d8cca2d9321f0278fc785738e1236ce4",
        "to": "0xa5fce578a2378edc58489456000a92913aea374e",
        "gas": "0xf876",
        "value": "0x0",
        "data": "0xd710442a000000000000000000000000000000000000000000000000000000000000000500000000000000000000000000000000000000000000000000000000000000000000000000000000000000000000000000000000000000000000000000000012",
        "nonce": "0x531",
        "accessList": []
      },
      "additionalContracts": [],
      "isFixedGasLimit": false
    },
    {
      "hash": null,
      "transactionType": "CALL",
      "contractName": null,
      "contractAddress": "0x56F56C688181C7B80bcd520889466521265b5f81",
      "function": null,
      "arguments": null,
      "transaction": {
        "type": "0x02",
        "from": "0x85752248d8cca2d9321f0278fc785738e1236ce4",
        "to": "0x56f56c688181c7b80bcd520889466521265b5f81",
        "gas": "0x234b9",
        "value": "0x0",
        "data": "0xee39043c0000000000000000000000000000000000000000000000000000000000000005000000000000000000000000000000000000000000000000000000000000000000000000000000000000000000000000000000000000006663f303de1e8d0000",
        "nonce": "0x532",
        "accessList": []
      },
      "additionalContracts": [],
      "isFixedGasLimit": false
    },
    {
      "hash": null,
      "transactionType": "CALL",
      "contractName": null,
      "contractAddress": "0xA5fCe578a2378eDC58489456000a92913Aea374e",
      "function": null,
      "arguments": null,
      "transaction": {
        "type": "0x02",
        "from": "0x85752248d8cca2d9321f0278fc785738e1236ce4",
        "to": "0xa5fce578a2378edc58489456000a92913aea374e",
        "gas": "0xf9ae",
        "value": "0x0",
        "data": "0xd710442a0000000000000000000000000000000000000000000000000000000000000005000000000000000000000000b0202b94597f54112ee407cf454fdb25dc1dd7590000000000000000000000000000000000000000000000000000000000000006",
        "nonce": "0x533",
        "accessList": []
      },
      "additionalContracts": [],
      "isFixedGasLimit": false
    },
    {
      "hash": null,
      "transactionType": "CALL",
      "contractName": null,
      "contractAddress": "0x56F56C688181C7B80bcd520889466521265b5f81",
      "function": null,
      "arguments": null,
      "transaction": {
        "type": "0x02",
        "from": "0x85752248d8cca2d9321f0278fc785738e1236ce4",
        "to": "0x56f56c688181c7b80bcd520889466521265b5f81",
        "gas": "0x21694",
        "value": "0x0",
        "data": "0xee39043c0000000000000000000000000000000000000000000000000000000000000005000000000000000000000000b0202b94597f54112ee407cf454fdb25dc1dd7590000000000000000000000000000000000000000000000000de0b6b3a7640000",
        "nonce": "0x534",
        "accessList": []
      },
      "additionalContracts": [],
      "isFixedGasLimit": false
    }
  ],
  "receipts": [],
  "libraries": [],
  "pending": [],
  "returns": {},
  "timestamp": 1693519492,
  "chain": 421613,
  "multi": false,
  "commit": "ee0df5e"
}