{
  "transactions": [
    {
      "hash": null,
      "transactionType": "CALL",
      "contractName": null,
      "contractAddress": "0x5E81a7f2E837600e81EEB102193459FAe1350D33",
      "function": null,
      "arguments": null,
      "transaction": {
        "type": "0x02",
        "from": "0x85752248d8cca2d9321f0278fc785738e1236ce4",
        "to": "0x5e81a7f2e837600e81eeb102193459fae1350d33",
        "gas": "0xf81b",
        "value": "0x0",
        "data": "0xd710442a000000000000000000000000000000000000000000000000000000000000000500000000000000000000000000000000000000000000000000000000000000000000000000000000000000000000000000000000000000000000000000000012",
        "nonce": "0x3c9",
        "accessList": []
      },
      "additionalContracts": [],
      "isFixedGasLimit": false
    },
    {
      "hash": null,
      "transactionType": "CALL",
      "contractName": null,
      "contractAddress": "0x552706D15eDE427aB3659d08cA988d67291e4281",
      "function": null,
      "arguments": null,
      "transaction": {
        "type": "0x02",
        "from": "0x85752248d8cca2d9321f0278fc785738e1236ce4",
        "to": "0x552706d15ede427ab3659d08ca988d67291e4281",
        "gas": "0x23487",
        "value": "0x0",
        "data": "0xee39043c0000000000000000000000000000000000000000000000000000000000000005000000000000000000000000000000000000000000000000000000000000000000000000000000000000000000000000000000000000006663f303de1e8d0000",
        "nonce": "0x3ca",
        "accessList": []
      },
      "additionalContracts": [],
      "isFixedGasLimit": false
    },
    {
      "hash": null,
      "transactionType": "CALL",
      "contractName": null,
      "contractAddress": "0x5E81a7f2E837600e81EEB102193459FAe1350D33",
      "function": null,
      "arguments": null,
      "transaction": {
        "type": "0x02",
        "from": "0x85752248d8cca2d9321f0278fc785738e1236ce4",
        "to": "0x5e81a7f2e837600e81eeb102193459fae1350d33",
        "gas": "0xf953",
        "value": "0x0",
        "data": "0xd710442a0000000000000000000000000000000000000000000000000000000000000005000000000000000000000000b0202b94597f54112ee407cf454fdb25dc1dd7590000000000000000000000000000000000000000000000000000000000000006",
        "nonce": "0x3cb",
        "accessList": []
      },
      "additionalContracts": [],
      "isFixedGasLimit": false
    },
    {
      "hash": null,
      "transactionType": "CALL",
      "contractName": null,
      "contractAddress": "0x552706D15eDE427aB3659d08cA988d67291e4281",
      "function": null,
      "arguments": null,
      "transaction": {
        "type": "0x02",
        "from": "0x85752248d8cca2d9321f0278fc785738e1236ce4",
        "to": "0x552706d15ede427ab3659d08ca988d67291e4281",
        "gas": "0x21665",
        "value": "0x0",
        "data": "0xee39043c0000000000000000000000000000000000000000000000000000000000000005000000000000000000000000b0202b94597f54112ee407cf454fdb25dc1dd7590000000000000000000000000000000000000000000000000de0b6b3a7640000",
        "nonce": "0x3cc",
        "accessList": []
      },
      "additionalContracts": [],
      "isFixedGasLimit": false
    }
  ],
  "receipts": [],
  "libraries": [],
  "pending": [],
  "returns": {},
  "timestamp": 1693244838,
  "chain": 421613,
  "multi": false,
  "commit": "303b1ee"
}