{
  "transactions": [
    {
      "hash": null,
      "transactionType": "CALL",
      "contractName": null,
      "contractAddress": "0xe86B2e984A2Fe77E1BDdAE87591759c6E58Eb6E0",
      "function": null,
      "arguments": null,
      "transaction": {
        "type": "0x02",
        "from": "0x85752248d8cca2d9321f0278fc785738e1236ce4",
        "to": "0xe86b2e984a2fe77e1bddae87591759c6e58eb6e0",
        "gas": "0xf87a",
        "value": "0x0",
        "data": "0xd710442a000000000000000000000000000000000000000000000000000000000000000500000000000000000000000000000000000000000000000000000000000000000000000000000000000000000000000000000000000000000000000000000012",
        "nonce": "0x721",
        "accessList": []
      },
      "additionalContracts": [],
      "isFixedGasLimit": false
    },
    {
      "hash": null,
      "transactionType": "CALL",
      "contractName": null,
      "contractAddress": "0xB0A6ff962080da707aA674340B2B708B3B1Be24a",
      "function": null,
      "arguments": null,
      "transaction": {
        "type": "0x02",
        "from": "0x85752248d8cca2d9321f0278fc785738e1236ce4",
        "to": "0xb0a6ff962080da707aa674340b2b708b3b1be24a",
        "gas": "0x2155d",
        "value": "0x0",
        "data": "0xee39043c0000000000000000000000000000000000000000000000000000000000000005000000000000000000000000000000000000000000000000000000000000000000000000000000000000000000000000000000000000006663f303de1e8d0000",
        "nonce": "0x722",
        "accessList": []
      },
      "additionalContracts": [],
      "isFixedGasLimit": false
    },
    {
      "hash": null,
      "transactionType": "CALL",
      "contractName": null,
      "contractAddress": "0xe86B2e984A2Fe77E1BDdAE87591759c6E58Eb6E0",
      "function": null,
      "arguments": null,
      "transaction": {
        "type": "0x02",
        "from": "0x85752248d8cca2d9321f0278fc785738e1236ce4",
        "to": "0xe86b2e984a2fe77e1bddae87591759c6e58eb6e0",
        "gas": "0xf9b2",
        "value": "0x0",
        "data": "0xd710442a0000000000000000000000000000000000000000000000000000000000000005000000000000000000000000b0202b94597f54112ee407cf454fdb25dc1dd7590000000000000000000000000000000000000000000000000000000000000006",
        "nonce": "0x723",
        "accessList": []
      },
      "additionalContracts": [],
      "isFixedGasLimit": false
    },
    {
      "hash": null,
      "transactionType": "CALL",
      "contractName": null,
      "contractAddress": "0xB0A6ff962080da707aA674340B2B708B3B1Be24a",
      "function": null,
      "arguments": null,
      "transaction": {
        "type": "0x02",
        "from": "0x85752248d8cca2d9321f0278fc785738e1236ce4",
        "to": "0xb0a6ff962080da707aa674340b2b708b3b1be24a",
        "gas": "0x2360b",
        "value": "0x0",
        "data": "0xee39043c0000000000000000000000000000000000000000000000000000000000000005000000000000000000000000b0202b94597f54112ee407cf454fdb25dc1dd7590000000000000000000000000000000000000000000000000de0b6b3a7640000",
        "nonce": "0x724",
        "accessList": []
      },
      "additionalContracts": [],
      "isFixedGasLimit": false
    },
    {
      "hash": null,
      "transactionType": "CALL",
      "contractName": null,
      "contractAddress": "0xe86B2e984A2Fe77E1BDdAE87591759c6E58Eb6E0",
      "function": null,
      "arguments": null,
      "transaction": {
        "type": "0x02",
        "from": "0x85752248d8cca2d9321f0278fc785738e1236ce4",
        "to": "0xe86b2e984a2fe77e1bddae87591759c6e58eb6e0",
        "gas": "0xf9b2",
        "value": "0x0",
        "data": "0xd710442a000000000000000000000000000000000000000000000000000000000000000500000000000000000000000035fb82010631da230859b7ac0b34fbedb6592e3d0000000000000000000000000000000000000000000000000000000000000012",
        "nonce": "0x725",
        "accessList": []
      },
      "additionalContracts": [],
      "isFixedGasLimit": false
    },
    {
      "hash": null,
      "transactionType": "CALL",
      "contractName": null,
      "contractAddress": "0xB0A6ff962080da707aA674340B2B708B3B1Be24a",
      "function": null,
      "arguments": null,
      "transaction": {
        "type": "0x02",
        "from": "0x85752248d8cca2d9321f0278fc785738e1236ce4",
        "to": "0xb0a6ff962080da707aa674340b2b708b3b1be24a",
        "gas": "0x2360b",
        "value": "0x0",
        "data": "0xee39043c000000000000000000000000000000000000000000000000000000000000000500000000000000000000000035fb82010631da230859b7ac0b34fbedb6592e3d0000000000000000000000000000000000000000000000000214e8348c4f0000",
        "nonce": "0x726",
        "accessList": []
      },
      "additionalContracts": [],
      "isFixedGasLimit": false
    }
  ],
  "receipts": [],
  "libraries": [],
  "pending": [],
  "returns": {},
  "timestamp": 1695604144,
  "chain": 421613,
  "multi": false,
  "commit": "c7ccaef"
}