{
  "transactions": [
    {
      "hash": null,
      "transactionType": "CALL",
      "contractName": null,
      "contractAddress": "0x216D5eF49e33ec9A90Edb67d14B3f80dBFd2819c",
      "function": null,
      "arguments": null,
      "transaction": {
        "type": "0x00",
        "from": "0x85752248d8cca2d9321f0278fc785738e1236ce4",
        "to": "0x216d5ef49e33ec9a90edb67d14b3f80dbfd2819c",
        "gas": "0xfa2d",
        "value": "0x0",
        "data": "0x331f570300000000000000000000000000000000000000000000000000000000000000000000000000000000000000000000000000000000000000000000000000000000",
        "nonce": "0x4ae"
      },
      "additionalContracts": [],
      "isFixedGasLimit": false
    },
    {
      "hash": null,
      "transactionType": "CALL",
      "contractName": null,
      "contractAddress": "0x57546f95163291b04588a2aBDC1FeB0FA215561A",
      "function": null,
      "arguments": null,
      "transaction": {
        "type": "0x00",
        "from": "0x85752248d8cca2d9321f0278fc785738e1236ce4",
        "to": "0x57546f95163291b04588a2abdc1feb0fa215561a",
        "gas": "0xf922",
        "value": "0x0",
        "data": "0x095ea7b3000000000000000000000000216d5ef49e33ec9a90edb67d14b3f80dbfd2819c0000000000000000000000000000000000000000000000000000000000000001",
        "nonce": "0x4af"
      },
      "additionalContracts": [],
      "isFixedGasLimit": false
    },
    {
      "hash": null,
      "transactionType": "CALL",
      "contractName": null,
      "contractAddress": "0x216D5eF49e33ec9A90Edb67d14B3f80dBFd2819c",
      "function": null,
      "arguments": null,
      "transaction": {
        "type": "0x00",
        "from": "0x85752248d8cca2d9321f0278fc785738e1236ce4",
        "to": "0x216d5ef49e33ec9a90edb67d14b3f80dbfd2819c",
        "gas": "0x1a7b8",
        "value": "0x0",
        "data": "0x331f570300000000000000000000000057546f95163291b04588a2abdc1feb0fa215561a00000000000000000000000085752248d8cca2d9321f0278fc785738e1236ce4",
        "nonce": "0x4b0"
      },
      "additionalContracts": [],
      "isFixedGasLimit": false
    }
  ],
  "receipts": [],
  "libraries": [],
  "pending": [],
  "returns": {},
  "timestamp": 1694060413,
  "chain": 97,
  "multi": false,
  "commit": "f263816"
}