{
  "transactions": [
    {
      "hash": null,
      "transactionType": "CALL",
      "contractName": null,
      "contractAddress": "0xF78DF00594cEEd87524Ef58846dd7783dfDECc15",
      "function": "addSupportedAsset(address,address)",
      "arguments": [
        "0x0000000000000000000000000000000000000000",
        "0x0000000000000000000000000000000000000000"
      ],
      "transaction": {
        "type": "0x00",
        "from": "0x85752248d8cca2d9321f0278fc785738e1236ce4",
        "to": "0xf78df00594ceed87524ef58846dd7783dfdecc15",
        "gas": "0xfa2d",
        "value": "0x0",
        "data": "0x331f570300000000000000000000000000000000000000000000000000000000000000000000000000000000000000000000000000000000000000000000000000000000",
        "nonce": "0x605"
      },
      "additionalContracts": [],
      "isFixedGasLimit": false
    },
    {
      "hash": null,
      "transactionType": "CALL",
      "contractName": null,
      "contractAddress": "0x57546f95163291b04588a2aBDC1FeB0FA215561A",
      "function": "approve(address,uint256)",
      "arguments": [
        "0xF78DF00594cEEd87524Ef58846dd7783dfDECc15",
        "1"
      ],
      "transaction": {
        "type": "0x00",
        "from": "0x85752248d8cca2d9321f0278fc785738e1236ce4",
        "to": "0x57546f95163291b04588a2abdc1feb0fa215561a",
        "gas": "0xf922",
        "value": "0x0",
        "data": "0x095ea7b3000000000000000000000000f78df00594ceed87524ef58846dd7783dfdecc150000000000000000000000000000000000000000000000000000000000000001",
        "nonce": "0x606"
      },
      "additionalContracts": [],
      "isFixedGasLimit": false
    },
    {
      "hash": null,
      "transactionType": "CALL",
      "contractName": null,
      "contractAddress": "0xF78DF00594cEEd87524Ef58846dd7783dfDECc15",
      "function": "addSupportedAsset(address,address)",
      "arguments": [
        "0x57546f95163291b04588a2aBDC1FeB0FA215561A",
        "0x85752248d8ccA2d9321f0278FC785738E1236CE4"
      ],
      "transaction": {
        "type": "0x00",
        "from": "0x85752248d8cca2d9321f0278fc785738e1236ce4",
        "to": "0xf78df00594ceed87524ef58846dd7783dfdecc15",
        "gas": "0x1a7b8",
        "value": "0x0",
        "data": "0x331f570300000000000000000000000057546f95163291b04588a2abdc1feb0fa215561a00000000000000000000000085752248d8cca2d9321f0278fc785738e1236ce4",
        "nonce": "0x607"
      },
      "additionalContracts": [],
      "isFixedGasLimit": false
    }
  ],
  "receipts": [],
  "libraries": [],
  "pending": [],
  "returns": {},
  "timestamp": 1707948972,
  "chain": 97,
  "multi": false,
  "commit": "a71d2ab"
}