{
  "transactions": [
    {
      "hash": null,
      "transactionType": "CALL",
      "contractName": null,
      "contractAddress": "0xe9154DD38DFAB0a132EA995681d3604be8b2A7bB",
      "function": null,
      "arguments": null,
      "transaction": {
        "type": "0x02",
        "from": "0x85752248d8cca2d9321f0278fc785738e1236ce4",
        "to": "0xe9154dd38dfab0a132ea995681d3604be8b2a7bb",
        "gas": "0xfa2d",
        "value": "0x0",
        "data": "0x331f570300000000000000000000000000000000000000000000000000000000000000000000000000000000000000000000000000000000000000000000000000000000",
        "nonce": "0x207",
        "accessList": []
      },
      "additionalContracts": [],
      "isFixedGasLimit": false
    }
  ],
  "receipts": [],
  "libraries": [],
  "pending": [],
  "returns": {},
  "timestamp": 1693557053,
  "chain": 80001,
  "multi": false,
  "commit": "3fbbd65"
}