{
  "transactions": [
    {
      "hash": null,
      "transactionType": "CALL",
      "contractName": null,
      "contractAddress": "0x3Ce0F80893594166F2108553A3F71661668165A5",
      "function": "addSupportedAsset(address,address)",
      "arguments": [
        "0x0000000000000000000000000000000000000000",
        "0x0000000000000000000000000000000000000000"
      ],
      "transaction": {
        "type": "0x02",
        "from": "0x85752248d8cca2d9321f0278fc785738e1236ce4",
        "to": "0x3ce0f80893594166f2108553a3f71661668165a5",
        "gas": "0xfa2d",
        "value": "0x0",
        "data": "0x331f570300000000000000000000000000000000000000000000000000000000000000000000000000000000000000000000000000000000000000000000000000000000",
        "nonce": "0x352",
        "accessList": []
      },
      "additionalContracts": [],
      "isFixedGasLimit": false
    }
  ],
  "receipts": [],
  "libraries": [],
  "pending": [],
  "returns": {},
  "timestamp": 1707948882,
  "chain": 80001,
  "multi": false,
  "commit": "a71d2ab"
}