{
  "transactions": [
    {
      "hash": "0xe102d7c59311f0439a1db76889981d0c1037a2dc1b59272fe7ea8def603b3af7",
      "transactionType": "CALL",
      "contractName": null,
      "contractAddress": "0xF3f607cea8B2096882c09f3ceBDff1317c95Ad73",
      "function": null,
      "arguments": null,
      "transaction": {
        "type": "0x02",
        "from": "0x85752248d8cca2d9321f0278fc785738e1236ce4",
        "to": "0xf3f607cea8b2096882c09f3cebdff1317c95ad73",
        "gas": "0x36062",
        "value": "0x16345785d8a0000",
        "data": "0x1587e558",
        "nonce": "0xa61",
        "accessList": []
      },
      "additionalContracts": [],
      "isFixedGasLimit": false
    },
    {
      "hash": "0x51e4820d0d71605a3e615096413ff5283695ea68f7f426e18438dd7428fb10c0",
      "transactionType": "CALL",
      "contractName": null,
      "contractAddress": "0xF3f607cea8B2096882c09f3ceBDff1317c95Ad73",
      "function": null,
      "arguments": null,
      "transaction": {
        "type": "0x02",
        "from": "0x85752248d8cca2d9321f0278fc785738e1236ce4",
        "to": "0xf3f607cea8b2096882c09f3cebdff1317c95ad73",
        "gas": "0x36062",
        "value": "0x16345785d8a0000",
        "data": "0x1587e558",
        "nonce": "0xa62",
        "accessList": []
      },
      "additionalContracts": [],
      "isFixedGasLimit": false
    },
    {
      "hash": "0x95b081c965fd6e1d0c60c6a5a5052f238cb1d0aef2a8318b7702042b2be305f0",
      "transactionType": "CALL",
      "contractName": null,
      "contractAddress": "0xF3f607cea8B2096882c09f3ceBDff1317c95Ad73",
      "function": null,
      "arguments": null,
      "transaction": {
        "type": "0x02",
        "from": "0x85752248d8cca2d9321f0278fc785738e1236ce4",
        "to": "0xf3f607cea8b2096882c09f3cebdff1317c95ad73",
        "gas": "0x36062",
        "value": "0x16345785d8a0000",
        "data": "0x1587e558",
        "nonce": "0xa63",
        "accessList": []
      },
      "additionalContracts": [],
      "isFixedGasLimit": false
    },
    {
      "hash": "0x90fd16c22828430bb943248dca8d2193ed2e8786ab1f6e54d6f6db882df53dd7",
      "transactionType": "CALL",
      "contractName": null,
      "contractAddress": "0xF3f607cea8B2096882c09f3ceBDff1317c95Ad73",
      "function": null,
      "arguments": null,
      "transaction": {
        "type": "0x02",
        "from": "0x85752248d8cca2d9321f0278fc785738e1236ce4",
        "to": "0xf3f607cea8b2096882c09f3cebdff1317c95ad73",
        "gas": "0x36062",
        "value": "0x16345785d8a0000",
        "data": "0x1587e558",
        "nonce": "0xa64",
        "accessList": []
      },
      "additionalContracts": [],
      "isFixedGasLimit": false
    },
    {
      "hash": "0xb15040de7aacccccf4cf2577d9f31afb1e1ec7a2c9578c876384c50ca177458a",
      "transactionType": "CALL",
      "contractName": null,
      "contractAddress": "0xF3f607cea8B2096882c09f3ceBDff1317c95Ad73",
      "function": null,
      "arguments": null,
      "transaction": {
        "type": "0x02",
        "from": "0x85752248d8cca2d9321f0278fc785738e1236ce4",
        "to": "0xf3f607cea8b2096882c09f3cebdff1317c95ad73",
        "gas": "0x36062",
        "value": "0x16345785d8a0000",
        "data": "0x1587e558",
        "nonce": "0xa65",
        "accessList": []
      },
      "additionalContracts": [],
      "isFixedGasLimit": false
    },
    {
      "hash": "0x26057fe11d6d3216eb4ad108070bc0ae1ada896aca5adec22a387a7b10efc664",
      "transactionType": "CALL",
      "contractName": null,
      "contractAddress": "0xF3f607cea8B2096882c09f3ceBDff1317c95Ad73",
      "function": null,
      "arguments": null,
      "transaction": {
        "type": "0x02",
        "from": "0x85752248d8cca2d9321f0278fc785738e1236ce4",
        "to": "0xf3f607cea8b2096882c09f3cebdff1317c95ad73",
        "gas": "0x36062",
        "value": "0x16345785d8a0000",
        "data": "0x1587e558",
        "nonce": "0xa66",
        "accessList": []
      },
      "additionalContracts": [],
      "isFixedGasLimit": false
    },
    {
      "hash": "0xead2d013969465d834d0d1cd1b225e051dff8190f6d53e10f59acdc47a7dc724",
      "transactionType": "CALL",
      "contractName": null,
      "contractAddress": "0xF3f607cea8B2096882c09f3ceBDff1317c95Ad73",
      "function": null,
      "arguments": null,
      "transaction": {
        "type": "0x02",
        "from": "0x85752248d8cca2d9321f0278fc785738e1236ce4",
        "to": "0xf3f607cea8b2096882c09f3cebdff1317c95ad73",
        "gas": "0x36062",
        "value": "0x16345785d8a0000",
        "data": "0x1587e558",
        "nonce": "0xa67",
        "accessList": []
      },
      "additionalContracts": [],
      "isFixedGasLimit": false
    },
    {
      "hash": "0x7a9669215436bad9f4628ea3cbb963fba8ab61d8d50dc992c2aac606e87a4191",
      "transactionType": "CALL",
      "contractName": null,
      "contractAddress": "0xF3f607cea8B2096882c09f3ceBDff1317c95Ad73",
      "function": null,
      "arguments": null,
      "transaction": {
        "type": "0x02",
        "from": "0x85752248d8cca2d9321f0278fc785738e1236ce4",
        "to": "0xf3f607cea8b2096882c09f3cebdff1317c95ad73",
        "gas": "0x36062",
        "value": "0x16345785d8a0000",
        "data": "0x1587e558",
        "nonce": "0xa68",
        "accessList": []
      },
      "additionalContracts": [],
      "isFixedGasLimit": false
    },
    {
      "hash": "0x2ad58c63025278bff4810b4d17f6d3d941b57f1b5a295a55c333f3ad18d93b99",
      "transactionType": "CALL",
      "contractName": null,
      "contractAddress": "0xF3f607cea8B2096882c09f3ceBDff1317c95Ad73",
      "function": null,
      "arguments": null,
      "transaction": {
        "type": "0x02",
        "from": "0x85752248d8cca2d9321f0278fc785738e1236ce4",
        "to": "0xf3f607cea8b2096882c09f3cebdff1317c95ad73",
        "gas": "0x36062",
        "value": "0x16345785d8a0000",
        "data": "0x1587e558",
        "nonce": "0xa69",
        "accessList": []
      },
      "additionalContracts": [],
      "isFixedGasLimit": false
    },
    {
      "hash": "0x4d7105f87622e8c5a819d4c81dde02a7825ff6e9a16313d0335376589792bb27",
      "transactionType": "CALL",
      "contractName": null,
      "contractAddress": "0xF3f607cea8B2096882c09f3ceBDff1317c95Ad73",
      "function": null,
      "arguments": null,
      "transaction": {
        "type": "0x02",
        "from": "0x85752248d8cca2d9321f0278fc785738e1236ce4",
        "to": "0xf3f607cea8b2096882c09f3cebdff1317c95ad73",
        "gas": "0x36062",
        "value": "0x16345785d8a0000",
        "data": "0x1587e558",
        "nonce": "0xa6a",
        "accessList": []
      },
      "additionalContracts": [],
      "isFixedGasLimit": false
    },
    {
      "hash": "0x7474fab48ad5c179786281fa44e9c5a1fc1d068aea7777673ade7664a2fe1a3e",
      "transactionType": "CALL",
      "contractName": null,
      "contractAddress": "0xF3f607cea8B2096882c09f3ceBDff1317c95Ad73",
      "function": null,
      "arguments": null,
      "transaction": {
        "type": "0x02",
        "from": "0x85752248d8cca2d9321f0278fc785738e1236ce4",
        "to": "0xf3f607cea8b2096882c09f3cebdff1317c95ad73",
        "gas": "0x2a197",
        "value": "0x0",
        "data": "0x58bd094f0000000000000000000000000000000000000000000000000000000000000000",
        "nonce": "0xa6b",
        "accessList": []
      },
      "additionalContracts": [],
      "isFixedGasLimit": false
    }
  ],
  "receipts": [],
  "libraries": [],
  "pending": [
    "0xe102d7c59311f0439a1db76889981d0c1037a2dc1b59272fe7ea8def603b3af7",
    "0x51e4820d0d71605a3e615096413ff5283695ea68f7f426e18438dd7428fb10c0",
    "0x95b081c965fd6e1d0c60c6a5a5052f238cb1d0aef2a8318b7702042b2be305f0",
    "0x90fd16c22828430bb943248dca8d2193ed2e8786ab1f6e54d6f6db882df53dd7",
    "0xb15040de7aacccccf4cf2577d9f31afb1e1ec7a2c9578c876384c50ca177458a",
    "0x26057fe11d6d3216eb4ad108070bc0ae1ada896aca5adec22a387a7b10efc664",
    "0xead2d013969465d834d0d1cd1b225e051dff8190f6d53e10f59acdc47a7dc724",
    "0x7a9669215436bad9f4628ea3cbb963fba8ab61d8d50dc992c2aac606e87a4191",
    "0x2ad58c63025278bff4810b4d17f6d3d941b57f1b5a295a55c333f3ad18d93b99",
    "0x4d7105f87622e8c5a819d4c81dde02a7825ff6e9a16313d0335376589792bb27",
    "0x7474fab48ad5c179786281fa44e9c5a1fc1d068aea7777673ade7664a2fe1a3e"
  ],
  "returns": {},
  "timestamp": 1692653272,
  "chain": 5,
  "multi": false,
  "commit": "c856ad3"
}