{
  "transactions": [
    {
      "hash": null,
      "transactionType": "CALL",
      "contractName": null,
      "contractAddress": "0xAD38a1ebfbD000558B58195e7a852092DF7f2F1D",
      "function": null,
      "arguments": null,
      "transaction": {
        "type": "0x02",
        "from": "0x85752248d8cca2d9321f0278fc785738e1236ce4",
        "to": "0xad38a1ebfbd000558b58195e7a852092df7f2f1d",
        "gas": "0xfa2d",
        "value": "0x0",
        "data": "0x331f570300000000000000000000000000000000000000000000000000000000000000000000000000000000000000000000000000000000000000000000000000000000",
        "nonce": "0xb24",
        "accessList": []
      },
      "additionalContracts": [],
      "isFixedGasLimit": false
    },
    {
      "hash": null,
      "transactionType": "CALL",
      "contractName": null,
      "contractAddress": "0xb0202B94597F54112Ee407CF454fDB25Dc1DD759",
      "function": null,
      "arguments": null,
      "transaction": {
        "type": "0x02",
        "from": "0x85752248d8cca2d9321f0278fc785738e1236ce4",
        "to": "0xb0202b94597f54112ee407cf454fdb25dc1dd759",
        "gas": "0x107b8",
        "value": "0x0",
        "data": "0x095ea7b3000000000000000000000000ad38a1ebfbd000558b58195e7a852092df7f2f1d0000000000000000000000000000000000000000000000000000000000000001",
        "nonce": "0xb25",
        "accessList": []
      },
      "additionalContracts": [],
      "isFixedGasLimit": false
    },
    {
      "hash": null,
      "transactionType": "CALL",
      "contractName": null,
      "contractAddress": "0xAD38a1ebfbD000558B58195e7a852092DF7f2F1D",
      "function": null,
      "arguments": null,
      "transaction": {
        "type": "0x02",
        "from": "0x85752248d8cca2d9321f0278fc785738e1236ce4",
        "to": "0xad38a1ebfbd000558b58195e7a852092df7f2f1d",
        "gas": "0x1a7b8",
        "value": "0x0",
        "data": "0x331f5703000000000000000000000000b0202b94597f54112ee407cf454fdb25dc1dd75900000000000000000000000085752248d8cca2d9321f0278fc785738e1236ce4",
        "nonce": "0xb26",
        "accessList": []
      },
      "additionalContracts": [],
      "isFixedGasLimit": false
    },
    {
      "hash": null,
      "transactionType": "CALL",
      "contractName": null,
      "contractAddress": "0x35fB82010631dA230859B7Ac0B34fbeDb6592E3d",
      "function": null,
      "arguments": null,
      "transaction": {
        "type": "0x02",
        "from": "0x85752248d8cca2d9321f0278fc785738e1236ce4",
        "to": "0x35fb82010631da230859b7ac0b34fbedb6592e3d",
        "gas": "0x107b8",
        "value": "0x0",
        "data": "0x095ea7b3000000000000000000000000ad38a1ebfbd000558b58195e7a852092df7f2f1d0000000000000000000000000000000000000000000000000000000000000001",
        "nonce": "0xb27",
        "accessList": []
      },
      "additionalContracts": [],
      "isFixedGasLimit": false
    },
    {
      "hash": null,
      "transactionType": "CALL",
      "contractName": null,
      "contractAddress": "0xAD38a1ebfbD000558B58195e7a852092DF7f2F1D",
      "function": null,
      "arguments": null,
      "transaction": {
        "type": "0x02",
        "from": "0x85752248d8cca2d9321f0278fc785738e1236ce4",
        "to": "0xad38a1ebfbd000558b58195e7a852092df7f2f1d",
        "gas": "0x1a7b8",
        "value": "0x0",
        "data": "0x331f570300000000000000000000000035fb82010631da230859b7ac0b34fbedb6592e3d00000000000000000000000085752248d8cca2d9321f0278fc785738e1236ce4",
        "nonce": "0xb28",
        "accessList": []
      },
      "additionalContracts": [],
      "isFixedGasLimit": false
    }
  ],
  "receipts": [],
  "libraries": [],
  "pending": [],
  "returns": {},
  "timestamp": 1695073391,
  "chain": 5,
  "multi": false,
  "commit": "c7ccaef"
}