{
  "transactions": [
    {
      "hash": null,
      "transactionType": "CALL",
      "contractName": null,
      "contractAddress": "0x35fB82010631dA230859B7Ac0B34fbeDb6592E3d",
      "function": null,
      "arguments": null,
      "transaction": {
        "type": "0x02",
        "from": "0x85752248d8cca2d9321f0278fc785738e1236ce4",
        "to": "0x35fb82010631da230859b7ac0b34fbedb6592e3d",
        "gas": "0x107b8",
        "value": "0x0",
        "data": "0x095ea7b300000000000000000000000085d0ba00fa960f3a23b3c8c1da0e17b3bce4594e0000000000000000000000000000000000000000000000000000000000000001",
        "nonce": "0xb32",
        "accessList": []
      },
      "additionalContracts": [],
      "isFixedGasLimit": false
    },
    {
      "hash": null,
      "transactionType": "CALL",
      "contractName": null,
      "contractAddress": "0x85D0bA00Fa960F3a23B3C8C1DA0E17b3BcE4594E",
      "function": null,
      "arguments": null,
      "transaction": {
        "type": "0x02",
        "from": "0x85752248d8cca2d9321f0278fc785738e1236ce4",
        "to": "0x85d0ba00fa960f3a23b3c8c1da0e17b3bce4594e",
        "gas": "0x1a7b8",
        "value": "0x0",
        "data": "0x331f570300000000000000000000000035fb82010631da230859b7ac0b34fbedb6592e3d00000000000000000000000085752248d8cca2d9321f0278fc785738e1236ce4",
        "nonce": "0xb33",
        "accessList": []
      },
      "additionalContracts": [],
      "isFixedGasLimit": false
    }
  ],
  "receipts": [],
  "libraries": [],
  "pending": [],
  "returns": {},
  "timestamp": 1695246328,
  "chain": 5,
  "multi": false,
  "commit": "c7ccaef"
}