{
  "transactions": [
    {
      "hash": null,
      "transactionType": "CALL",
      "contractName": null,
      "contractAddress": "0x82b4c1f490de8457979FCf81d7310cb014C39579",
      "function": null,
      "arguments": null,
      "transaction": {
        "type": "0x02",
        "from": "0x85752248d8cca2d9321f0278fc785738e1236ce4",
        "to": "0x82b4c1f490de8457979fcf81d7310cb014c39579",
        "gas": "0x1085b",
        "value": "0x0",
        "data": "0x331f570300000000000000000000000000000000000000000000000000000000000000000000000000000000000000000000000000000000000000000000000000000000",
        "nonce": "0xa55",
        "accessList": []
      },
      "additionalContracts": [],
      "isFixedGasLimit": false
    },
    {
      "hash": null,
      "transactionType": "CALL",
      "contractName": null,
      "contractAddress": "0x0000b6165aF19F2C87c56183115d9A52Aa22DBC7",
      "function": null,
      "arguments": null,
      "transaction": {
        "type": "0x02",
        "from": "0x85752248d8cca2d9321f0278fc785738e1236ce4",
        "to": "0x0000b6165af19f2c87c56183115d9a52aa22dbc7",
        "gas": "0xf938",
        "value": "0x0",
        "data": "0x095ea7b300000000000000000000000082b4c1f490de8457979fcf81d7310cb014c395790000000000000000000000000000000000000000000000000000000000000001",
        "nonce": "0xa56",
        "accessList": []
      },
      "additionalContracts": [],
      "isFixedGasLimit": false
    },
    {
      "hash": null,
      "transactionType": "CALL",
      "contractName": null,
      "contractAddress": "0x0000b6165aF19F2C87c56183115d9A52Aa22DBC7",
      "function": null,
      "arguments": null,
      "transaction": {
        "type": "0x02",
        "from": "0x85752248d8cca2d9321f0278fc785738e1236ce4",
        "to": "0x0000b6165af19f2c87c56183115d9a52aa22dbc7",
        "gas": "0x9632",
        "value": "0x0",
        "data": "0x095ea7b300000000000000000000000082b4c1f490de8457979fcf81d7310cb014c395790000000000000000000000000000000000000000000000000000000000000001",
        "nonce": "0xa57",
        "accessList": []
      },
      "additionalContracts": [],
      "isFixedGasLimit": false
    },
    {
      "hash": null,
      "transactionType": "CALL",
      "contractName": null,
      "contractAddress": "0x82b4c1f490de8457979FCf81d7310cb014C39579",
      "function": null,
      "arguments": null,
      "transaction": {
        "type": "0x02",
        "from": "0x85752248d8cca2d9321f0278fc785738e1236ce4",
        "to": "0x82b4c1f490de8457979fcf81d7310cb014c39579",
        "gas": "0x1af66",
        "value": "0x0",
        "data": "0x331f57030000000000000000000000000000b6165af19f2c87c56183115d9a52aa22dbc700000000000000000000000085752248d8cca2d9321f0278fc785738e1236ce4",
        "nonce": "0xa58",
        "accessList": []
      },
      "additionalContracts": [],
      "isFixedGasLimit": false
    }
  ],
  "receipts": [],
  "libraries": [],
  "pending": [],
  "returns": {},
  "timestamp": 1693100784,
  "chain": 5,
  "multi": false,
  "commit": "47a96f1"
}