{
  "transactions": [
    {
      "hash": null,
      "transactionType": "CALL",
      "contractName": null,
      "contractAddress": "0x4472D5bE0768E18808BfB9b484766301C019af13",
      "function": null,
      "arguments": null,
      "transaction": {
        "type": "0x02",
        "from": "0x85752248d8cca2d9321f0278fc785738e1236ce4",
        "to": "0x4472d5be0768e18808bfb9b484766301c019af13",
        "gas": "0x1085b",
        "value": "0x0",
        "data": "0x331f570300000000000000000000000000000000000000000000000000000000000000000000000000000000000000000000000000000000000000000000000000000000",
        "nonce": "0xa4e",
        "accessList": []
      },
      "additionalContracts": [],
      "isFixedGasLimit": false
    },
    {
      "hash": null,
      "transactionType": "CALL",
      "contractName": null,
      "contractAddress": "0x0000b6165aF19F2C87c56183115d9A52Aa22DBC7",
      "function": null,
      "arguments": null,
      "transaction": {
        "type": "0x02",
        "from": "0x85752248d8cca2d9321f0278fc785738e1236ce4",
        "to": "0x0000b6165af19f2c87c56183115d9a52aa22dbc7",
        "gas": "0xf938",
        "value": "0x0",
        "data": "0x095ea7b30000000000000000000000004472d5be0768e18808bfb9b484766301c019af130000000000000000000000000000000000000000000000000000000000000001",
        "nonce": "0xa4f",
        "accessList": []
      },
      "additionalContracts": [],
      "isFixedGasLimit": false
    },
    {
      "hash": null,
      "transactionType": "CALL",
      "contractName": null,
      "contractAddress": "0x0000b6165aF19F2C87c56183115d9A52Aa22DBC7",
      "function": null,
      "arguments": null,
      "transaction": {
        "type": "0x02",
        "from": "0x85752248d8cca2d9321f0278fc785738e1236ce4",
        "to": "0x0000b6165af19f2c87c56183115d9a52aa22dbc7",
        "gas": "0x9632",
        "value": "0x0",
        "data": "0x095ea7b30000000000000000000000004472d5be0768e18808bfb9b484766301c019af130000000000000000000000000000000000000000000000000000000000000001",
        "nonce": "0xa50",
        "accessList": []
      },
      "additionalContracts": [],
      "isFixedGasLimit": false
    },
    {
      "hash": null,
      "transactionType": "CALL",
      "contractName": null,
      "contractAddress": "0x4472D5bE0768E18808BfB9b484766301C019af13",
      "function": null,
      "arguments": null,
      "transaction": {
        "type": "0x02",
        "from": "0x85752248d8cca2d9321f0278fc785738e1236ce4",
        "to": "0x4472d5be0768e18808bfb9b484766301c019af13",
        "gas": "0x1af66",
        "value": "0x0",
        "data": "0x331f57030000000000000000000000000000b6165af19f2c87c56183115d9a52aa22dbc700000000000000000000000085752248d8cca2d9321f0278fc785738e1236ce4",
        "nonce": "0xa51",
        "accessList": []
      },
      "additionalContracts": [],
      "isFixedGasLimit": false
    }
  ],
  "receipts": [],
  "libraries": [],
  "pending": [],
  "returns": {},
  "timestamp": 1693099425,
  "chain": 5,
  "multi": false,
  "commit": "47a96f1"
}