{
  "transactions": [
    {
      "hash": null,
      "transactionType": "CALL",
      "contractName": null,
      "contractAddress": "0x1eDB86E746f7E1c7fb8EF72C59a93d7f0251C012",
      "function": null,
      "arguments": null,
      "transaction": {
        "type": "0x02",
        "from": "0x85752248d8cca2d9321f0278fc785738e1236ce4",
        "to": "0x1edb86e746f7e1c7fb8ef72c59a93d7f0251c012",
        "gas": "0x1085b",
        "value": "0x0",
        "data": "0x331f570300000000000000000000000000000000000000000000000000000000000000000000000000000000000000000000000000000000000000000000000000000000",
        "nonce": "0x9b3",
        "accessList": []
      },
      "additionalContracts": [],
      "isFixedGasLimit": false
    },
    {
      "hash": null,
      "transactionType": "CALL",
      "contractName": null,
      "contractAddress": "0x0000b6165aF19F2C87c56183115d9A52Aa22DBC7",
      "function": null,
      "arguments": null,
      "transaction": {
        "type": "0x02",
        "from": "0x85752248d8cca2d9321f0278fc785738e1236ce4",
        "to": "0x0000b6165af19f2c87c56183115d9a52aa22dbc7",
        "gas": "0xf938",
        "value": "0x0",
        "data": "0x095ea7b30000000000000000000000001edb86e746f7e1c7fb8ef72c59a93d7f0251c0120000000000000000000000000000000000000000000000000000000000000001",
        "nonce": "0x9b4",
        "accessList": []
      },
      "additionalContracts": [],
      "isFixedGasLimit": false
    },
    {
      "hash": null,
      "transactionType": "CALL",
      "contractName": null,
      "contractAddress": "0x0000b6165aF19F2C87c56183115d9A52Aa22DBC7",
      "function": null,
      "arguments": null,
      "transaction": {
        "type": "0x02",
        "from": "0x85752248d8cca2d9321f0278fc785738e1236ce4",
        "to": "0x0000b6165af19f2c87c56183115d9a52aa22dbc7",
        "gas": "0x9632",
        "value": "0x0",
        "data": "0x095ea7b30000000000000000000000001edb86e746f7e1c7fb8ef72c59a93d7f0251c0120000000000000000000000000000000000000000000000000000000000000001",
        "nonce": "0x9b5",
        "accessList": []
      },
      "additionalContracts": [],
      "isFixedGasLimit": false
    },
    {
      "hash": null,
      "transactionType": "CALL",
      "contractName": null,
      "contractAddress": "0x1eDB86E746f7E1c7fb8EF72C59a93d7f0251C012",
      "function": null,
      "arguments": null,
      "transaction": {
        "type": "0x02",
        "from": "0x85752248d8cca2d9321f0278fc785738e1236ce4",
        "to": "0x1edb86e746f7e1c7fb8ef72c59a93d7f0251c012",
        "gas": "0x1af66",
        "value": "0x0",
        "data": "0x331f57030000000000000000000000000000b6165af19f2c87c56183115d9a52aa22dbc700000000000000000000000085752248d8cca2d9321f0278fc785738e1236ce4",
        "nonce": "0x9b6",
        "accessList": []
      },
      "additionalContracts": [],
      "isFixedGasLimit": false
    }
  ],
  "receipts": [],
  "libraries": [],
  "pending": [],
  "returns": {},
  "timestamp": 1690860499,
  "chain": 5,
  "multi": false,
  "commit": "1a5893b"
}