{
  "transactions": [
    {
      "hash": null,
      "transactionType": "CALL",
      "contractName": null,
      "contractAddress": "0x30809DA383A8B7896A3fA579aFF729E7c93dc366",
      "function": null,
      "arguments": null,
      "transaction": {
        "type": "0x02",
        "from": "0x85752248d8cca2d9321f0278fc785738e1236ce4",
        "to": "0x30809da383a8b7896a3fa579aff729e7c93dc366",
        "gas": "0x1085b",
        "value": "0x0",
        "data": "0x331f570300000000000000000000000000000000000000000000000000000000000000000000000000000000000000000000000000000000000000000000000000000000",
        "nonce": "0xa80",
        "accessList": []
      },
      "additionalContracts": [],
      "isFixedGasLimit": false
    },
    {
      "hash": null,
      "transactionType": "CALL",
      "contractName": null,
      "contractAddress": "0xb0202B94597F54112Ee407CF454fDB25Dc1DD759",
      "function": null,
      "arguments": null,
      "transaction": {
        "type": "0x02",
        "from": "0x85752248d8cca2d9321f0278fc785738e1236ce4",
        "to": "0xb0202b94597f54112ee407cf454fdb25dc1dd759",
        "gas": "0xf922",
        "value": "0x0",
        "data": "0x095ea7b300000000000000000000000030809da383a8b7896a3fa579aff729e7c93dc3660000000000000000000000000000000000000000000000000000000000000001",
        "nonce": "0xa81",
        "accessList": []
      },
      "additionalContracts": [],
      "isFixedGasLimit": false
    },
    {
      "hash": null,
      "transactionType": "CALL",
      "contractName": null,
      "contractAddress": "0xb0202B94597F54112Ee407CF454fDB25Dc1DD759",
      "function": null,
      "arguments": null,
      "transaction": {
        "type": "0x02",
        "from": "0x85752248d8cca2d9321f0278fc785738e1236ce4",
        "to": "0xb0202b94597f54112ee407cf454fdb25dc1dd759",
        "gas": "0x961a",
        "value": "0x0",
        "data": "0x095ea7b300000000000000000000000030809da383a8b7896a3fa579aff729e7c93dc3660000000000000000000000000000000000000000000000000000000000000001",
        "nonce": "0xa82",
        "accessList": []
      },
      "additionalContracts": [],
      "isFixedGasLimit": false
    },
    {
      "hash": null,
      "transactionType": "CALL",
      "contractName": null,
      "contractAddress": "0x30809DA383A8B7896A3fA579aFF729E7c93dc366",
      "function": null,
      "arguments": null,
      "transaction": {
        "type": "0x02",
        "from": "0x85752248d8cca2d9321f0278fc785738e1236ce4",
        "to": "0x30809da383a8b7896a3fa579aff729e7c93dc366",
        "gas": "0x19ddb",
        "value": "0x0",
        "data": "0x331f5703000000000000000000000000b0202b94597f54112ee407cf454fdb25dc1dd75900000000000000000000000085752248d8cca2d9321f0278fc785738e1236ce4",
        "nonce": "0xa83",
        "accessList": []
      },
      "additionalContracts": [],
      "isFixedGasLimit": false
    }
  ],
  "receipts": [],
  "libraries": [],
  "pending": [],
  "returns": {},
  "timestamp": 1693244748,
  "chain": 5,
  "multi": false,
  "commit": "303b1ee"
}