{
  "transactions": [
    {
      "hash": null,
      "transactionType": "CALL",
      "contractName": null,
      "contractAddress": "0x8bbe9C6C7BcE73328Ccce9bBf99F1dE03c89B521",
      "function": "addSupportedAsset(address,address)",
      "arguments": [
        "0x0000000000000000000000000000000000000000",
        "0x0000000000000000000000000000000000000000"
      ],
      "transaction": {
        "type": "0x02",
        "from": "0x85752248d8cca2d9321f0278fc785738e1236ce4",
        "to": "0x8bbe9c6c7bce73328ccce9bbf99f1de03c89b521",
        "gas": "0xfa2d",
        "value": "0x0",
        "data": "0x331f570300000000000000000000000000000000000000000000000000000000000000000000000000000000000000000000000000000000000000000000000000000000",
        "nonce": "0xdd6",
        "accessList": []
      },
      "additionalContracts": [],
      "isFixedGasLimit": false
    },
    {
      "hash": null,
      "transactionType": "CALL",
      "contractName": null,
      "contractAddress": "0xb0202B94597F54112Ee407CF454fDB25Dc1DD759",
      "function": "approve(address,uint256)",
      "arguments": [
        "0x8bbe9C6C7BcE73328Ccce9bBf99F1dE03c89B521",
        "1"
      ],
      "transaction": {
        "type": "0x02",
        "from": "0x85752248d8cca2d9321f0278fc785738e1236ce4",
        "to": "0xb0202b94597f54112ee407cf454fdb25dc1dd759",
        "gas": "0xf922",
        "value": "0x0",
        "data": "0x095ea7b30000000000000000000000008bbe9c6c7bce73328ccce9bbf99f1de03c89b5210000000000000000000000000000000000000000000000000000000000000001",
        "nonce": "0xdd7",
        "accessList": []
      },
      "additionalContracts": [],
      "isFixedGasLimit": false
    },
    {
      "hash": null,
      "transactionType": "CALL",
      "contractName": null,
      "contractAddress": "0x8bbe9C6C7BcE73328Ccce9bBf99F1dE03c89B521",
      "function": "addSupportedAsset(address,address)",
      "arguments": [
        "0xb0202B94597F54112Ee407CF454fDB25Dc1DD759",
        "0x85752248d8ccA2d9321f0278FC785738E1236CE4"
      ],
      "transaction": {
        "type": "0x02",
        "from": "0x85752248d8cca2d9321f0278fc785738e1236ce4",
        "to": "0x8bbe9c6c7bce73328ccce9bbf99f1de03c89b521",
        "gas": "0x1a7b8",
        "value": "0x0",
        "data": "0x331f5703000000000000000000000000b0202b94597f54112ee407cf454fdb25dc1dd75900000000000000000000000085752248d8cca2d9321f0278fc785738e1236ce4",
        "nonce": "0xdd8",
        "accessList": []
      },
      "additionalContracts": [],
      "isFixedGasLimit": false
    },
    {
      "hash": null,
      "transactionType": "CALL",
      "contractName": null,
      "contractAddress": "0x35fB82010631dA230859B7Ac0B34fbeDb6592E3d",
      "function": "approve(address,uint256)",
      "arguments": [
        "0x8bbe9C6C7BcE73328Ccce9bBf99F1dE03c89B521",
        "1"
      ],
      "transaction": {
        "type": "0x02",
        "from": "0x85752248d8cca2d9321f0278fc785738e1236ce4",
        "to": "0x35fb82010631da230859b7ac0b34fbedb6592e3d",
        "gas": "0xf922",
        "value": "0x0",
        "data": "0x095ea7b30000000000000000000000008bbe9c6c7bce73328ccce9bbf99f1de03c89b5210000000000000000000000000000000000000000000000000000000000000001",
        "nonce": "0xdd9",
        "accessList": []
      },
      "additionalContracts": [],
      "isFixedGasLimit": false
    },
    {
      "hash": null,
      "transactionType": "CALL",
      "contractName": null,
      "contractAddress": "0x8bbe9C6C7BcE73328Ccce9bBf99F1dE03c89B521",
      "function": "addSupportedAsset(address,address)",
      "arguments": [
        "0x35fB82010631dA230859B7Ac0B34fbeDb6592E3d",
        "0x85752248d8ccA2d9321f0278FC785738E1236CE4"
      ],
      "transaction": {
        "type": "0x02",
        "from": "0x85752248d8cca2d9321f0278fc785738e1236ce4",
        "to": "0x8bbe9c6c7bce73328ccce9bbf99f1de03c89b521",
        "gas": "0x1a7b8",
        "value": "0x0",
        "data": "0x331f570300000000000000000000000035fb82010631da230859b7ac0b34fbedb6592e3d00000000000000000000000085752248d8cca2d9321f0278fc785738e1236ce4",
        "nonce": "0xdda",
        "accessList": []
      },
      "additionalContracts": [],
      "isFixedGasLimit": false
    }
  ],
  "receipts": [],
  "libraries": [],
  "pending": [],
  "returns": {},
  "timestamp": 1707946415,
  "chain": 5,
  "multi": false,
  "commit": "a71d2ab"
}