{
  "transactions": [
    {
      "hash": null,
      "transactionType": "CALL",
      "contractName": null,
      "contractAddress": "0x51A0256D2564FCD2E03E6384095fDaB2Cc929820",
      "function": null,
      "arguments": null,
      "transaction": {
        "type": "0x02",
        "from": "0x85752248d8cca2d9321f0278fc785738e1236ce4",
        "to": "0x51a0256d2564fcd2e03e6384095fdab2cc929820",
        "gas": "0xfc28",
        "value": "0x0",
        "data": "0x331f570300000000000000000000000000000000000000000000000000000000000000000000000000000000000000000000000000000000000000000000000000000000",
        "nonce": "0x82b",
        "accessList": []
      },
      "additionalContracts": [],
      "isFixedGasLimit": false
    },
    {
      "hash": null,
      "transactionType": "CALL",
      "contractName": null,
      "contractAddress": "0x0000b6165aF19F2C87c56183115d9A52Aa22DBC7",
      "function": null,
      "arguments": null,
      "transaction": {
        "type": "0x02",
        "from": "0x85752248d8cca2d9321f0278fc785738e1236ce4",
        "to": "0x0000b6165af19f2c87c56183115d9a52aa22dbc7",
        "gas": "0xf938",
        "value": "0x0",
        "data": "0x095ea7b300000000000000000000000051a0256d2564fcd2e03e6384095fdab2cc9298200000000000000000000000000000000000000000000000000000000000000001",
        "nonce": "0x82c",
        "accessList": []
      },
      "additionalContracts": [],
      "isFixedGasLimit": false
    },
    {
      "hash": null,
      "transactionType": "CALL",
      "contractName": null,
      "contractAddress": "0x0000b6165aF19F2C87c56183115d9A52Aa22DBC7",
      "function": null,
      "arguments": null,
      "transaction": {
        "type": "0x02",
        "from": "0x85752248d8cca2d9321f0278fc785738e1236ce4",
        "to": "0x0000b6165af19f2c87c56183115d9a52aa22dbc7",
        "gas": "0x9632",
        "value": "0x0",
        "data": "0x095ea7b300000000000000000000000051a0256d2564fcd2e03e6384095fdab2cc9298200000000000000000000000000000000000000000000000000000000000000001",
        "nonce": "0x82d",
        "accessList": []
      },
      "additionalContracts": [],
      "isFixedGasLimit": false
    },
    {
      "hash": null,
      "transactionType": "CALL",
      "contractName": null,
      "contractAddress": "0x51A0256D2564FCD2E03E6384095fDaB2Cc929820",
      "function": null,
      "arguments": null,
      "transaction": {
        "type": "0x02",
        "from": "0x85752248d8cca2d9321f0278fc785738e1236ce4",
        "to": "0x51a0256d2564fcd2e03e6384095fdab2cc929820",
        "gas": "0x18e37",
        "value": "0x0",
        "data": "0x331f57030000000000000000000000000000b6165af19f2c87c56183115d9a52aa22dbc700000000000000000000000085752248d8cca2d9321f0278fc785738e1236ce4",
        "nonce": "0x82e",
        "accessList": []
      },
      "additionalContracts": [],
      "isFixedGasLimit": false
    }
  ],
  "receipts": [],
  "libraries": [],
  "pending": [],
  "returns": {},
  "timestamp": 1690161016,
  "chain": 5,
  "multi": false,
  "commit": "752d48c"
}