{
  "transactions": [
    {
      "hash": null,
      "transactionType": "CALL",
      "contractName": null,
      "contractAddress": "0x9D64eF9E402C11Df6f97cAf8A19fE6fA408732ff",
      "function": null,
      "arguments": null,
      "transaction": {
        "type": "0x02",
        "from": "0xc789bbc077ddaa59b9dac1fae6fddda20cc664d7",
        "to": "0x9d64ef9e402c11df6f97caf8a19fe6fa408732ff",
        "gas": "0x8c07f",
        "value": "0x0",
        "data": "0xd710442a000000000000000000000000000000000000000000000000000000000000000100000000000000000000000000000000000000000000000000000000000000000000000000000000000000000000000000000000000000000000000000000012",
        "nonce": "0x20",
        "accessList": []
      },
      "additionalContracts": [],
      "isFixedGasLimit": false
    },
    {
      "hash": null,
      "transactionType": "CALL",
      "contractName": null,
      "contractAddress": "0xf7A29000cC2d0FAB78605De87761EA53ec6E9442",
      "function": null,
      "arguments": null,
      "transaction": {
        "type": "0x02",
        "from": "0xc789bbc077ddaa59b9dac1fae6fddda20cc664d7",
        "to": "0xf7a29000cc2d0fab78605de87761ea53ec6e9442",
        "gas": "0x2155d",
        "value": "0x0",
        "data": "0xee39043c00000000000000000000000000000000000000000000000000000000000000010000000000000000000000000000000000000000000000000000000000000000000000000000000000000000000000000000000000000059668dc36dc7730000",
        "nonce": "0x21",
        "accessList": []
      },
      "additionalContracts": [],
      "isFixedGasLimit": false
    },
    {
      "hash": null,
      "transactionType": "CALL",
      "contractName": null,
      "contractAddress": "0x9D64eF9E402C11Df6f97cAf8A19fE6fA408732ff",
      "function": null,
      "arguments": null,
      "transaction": {
        "type": "0x02",
        "from": "0xc789bbc077ddaa59b9dac1fae6fddda20cc664d7",
        "to": "0x9d64ef9e402c11df6f97caf8a19fe6fa408732ff",
        "gas": "0x8c1b7",
        "value": "0x0",
        "data": "0xd710442a0000000000000000000000000000000000000000000000000000000000000001000000000000000000000000dac17f958d2ee523a2206206994597c13d831ec70000000000000000000000000000000000000000000000000000000000000006",
        "nonce": "0x22",
        "accessList": []
      },
      "additionalContracts": [],
      "isFixedGasLimit": false
    },
    {
      "hash": null,
      "transactionType": "CALL",
      "contractName": null,
      "contractAddress": "0xf7A29000cC2d0FAB78605De87761EA53ec6E9442",
      "function": null,
      "arguments": null,
      "transaction": {
        "type": "0x02",
        "from": "0xc789bbc077ddaa59b9dac1fae6fddda20cc664d7",
        "to": "0xf7a29000cc2d0fab78605de87761ea53ec6e9442",
        "gas": "0x2360b",
        "value": "0x0",
        "data": "0xee39043c0000000000000000000000000000000000000000000000000000000000000001000000000000000000000000dac17f958d2ee523a2206206994597c13d831ec70000000000000000000000000000000000000000000000000de0b6b3a7640000",
        "nonce": "0x23",
        "accessList": []
      },
      "additionalContracts": [],
      "isFixedGasLimit": false
    }
  ],
  "receipts": [],
  "libraries": [],
  "pending": [],
  "returns": {},
  "timestamp": 1693568804,
  "chain": 42161,
  "multi": false,
  "commit": "3fbbd65"
}