{
  "transactions": [
    {
      "hash": null,
      "transactionType": "CALL",
      "contractName": null,
      "contractAddress": "0x4463e6A3dEd0dBE3F6e15bC8420dFc55e5FeA830",
      "function": null,
      "arguments": null,
      "transaction": {
        "type": "0x02",
        "from": "0xc789bbc077ddaa59b9dac1fae6fddda20cc664d7",
        "to": "0x4463e6a3ded0dbe3f6e15bc8420dfc55e5fea830",
        "gas": "0xfcee",
        "value": "0x0",
        "data": "0x095ea7b30000000000000000000000009bf0f4739cb2fe32484c7567c2719be9eaeff06b0000000000000000000000000000000000000000000000000000000000000001",
        "nonce": "0x7",
        "accessList": []
      },
      "additionalContracts": [],
      "isFixedGasLimit": false
    },
    {
      "hash": null,
      "transactionType": "CALL",
      "contractName": null,
      "contractAddress": "0x9bf0F4739cB2FE32484C7567c2719be9EAEFf06B",
      "function": null,
      "arguments": null,
      "transaction": {
        "type": "0x02",
        "from": "0xc789bbc077ddaa59b9dac1fae6fddda20cc664d7",
        "to": "0x9bf0f4739cb2fe32484c7567c2719be9eaeff06b",
        "gas": "0x24411",
        "value": "0x0",
        "data": "0x331f57030000000000000000000000004463e6a3ded0dbe3f6e15bc8420dfc55e5fea830000000000000000000000000c789bbc077ddaa59b9dac1fae6fddda20cc664d7",
        "nonce": "0x8",
        "accessList": []
      },
      "additionalContracts": [],
      "isFixedGasLimit": false
    }
  ],
  "receipts": [],
  "libraries": [],
  "pending": [],
  "returns": {},
  "timestamp": 1697139107,
  "chain": 1,
  "multi": false,
  "commit": "ed3f4f2"
}