{
  "transactions": [
    {
      "hash": null,
      "transactionType": "CALL",
      "contractName": null,
      "contractAddress": "0x7e69F2fed0abe27f8CbE2ea99d8552379a6c7048",
      "function": null,
      "arguments": null,
      "transaction": {
        "type": "0x02",
        "from": "0x85752248d8cca2d9321f0278fc785738e1236ce4",
        "to": "0x7e69f2fed0abe27f8cbe2ea99d8552379a6c7048",
        "gas": "0x3ae9b",
        "value": "0x6f05b59d3b20000",
        "data": "0x1587e558",
        "nonce": "0xaea",
        "accessList": []
      },
      "additionalContracts": [],
      "isFixedGasLimit": false
    }
  ],
  "receipts": [],
  "libraries": [],
  "pending": [],
  "returns": {},
  "timestamp": 1693519776,
  "chain": 5,
  "multi": false,
  "commit": "ee0df5e"
}