{
  "transactions": [
    {
      "hash": null,
      "transactionType": "CALL",
      "contractName": null,
      "contractAddress": "0x35fB82010631dA230859B7Ac0B34fbeDb6592E3d",
      "function": "approve(address,uint256)",
      "arguments": [
        "0x59c65dfaABaB087366b4300557EA49bD9388AB0f",
        "1000000000000000"
      ],
      "transaction": {
        "type": "0x02",
        "from": "0x85752248d8cca2d9321f0278fc785738e1236ce4",
        "to": "0x35fb82010631da230859b7ac0b34fbedb6592e3d",
        "gas": "0x10822",
        "value": "0x0",
        "data": "0x095ea7b300000000000000000000000059c65dfaabab087366b4300557ea49bd9388ab0f00000000000000000000000000000000000000000000000000038d7ea4c68000",
        "nonce": "0xddb",
        "accessList": []
      },
      "additionalContracts": [],
      "isFixedGasLimit": false
    },
    {
      "hash": null,
      "transactionType": "CALL",
      "contractName": null,
      "contractAddress": "0x59c65dfaABaB087366b4300557EA49bD9388AB0f",
      "function": "depositToken(address,uint256)",
      "arguments": [
        "0x35fB82010631dA230859B7Ac0B34fbeDb6592E3d",
        "1000000000000000"
      ],
      "transaction": {
        "type": "0x02",
        "from": "0x85752248d8cca2d9321f0278fc785738e1236ce4",
        "to": "0x59c65dfaabab087366b4300557ea49bd9388ab0f",
        "gas": "0x4e320",
        "value": "0x0",
        "data": "0x338b5dea00000000000000000000000035fb82010631da230859b7ac0b34fbedb6592e3d00000000000000000000000000000000000000000000000000038d7ea4c68000",
        "nonce": "0xddc",
        "accessList": []
      },
      "additionalContracts": [],
      "isFixedGasLimit": false
    }
  ],
  "receipts": [],
  "libraries": [],
  "pending": [],
  "returns": {},
  "timestamp": 1707947046,
  "chain": 5,
  "multi": false,
  "commit": "a71d2ab"
}