{
  "transactions": [
    {
      "hash": null,
      "transactionType": "CALL",
      "contractName": null,
      "contractAddress": "0xd47a5fEAf19350b741a83775a0839B31705319cf",
      "function": null,
      "arguments": null,
      "transaction": {
        "type": "0x02",
        "from": "0x85752248d8cca2d9321f0278fc785738e1236ce4",
        "to": "0xd47a5feaf19350b741a83775a0839b31705319cf",
        "gas": "0x3e4ed",
        "value": "0x4563918244f40000",
        "data": "0x1587e558",
        "nonce": "0x836",
        "accessList": []
      },
      "additionalContracts": [],
      "isFixedGasLimit": false
    }
  ],
  "receipts": [],
  "libraries": [],
  "pending": [],
  "returns": {},
  "timestamp": 1690248770,
  "chain": 5,
  "multi": false,
  "commit": "5bb2611"
}