{
  "transactions": [
    {
      "hash": null,
      "transactionType": "CALL",
      "contractName": null,
      "contractAddress": "0xB04C27B4b73eB7b1D33ccb37886dDd62DfB0005f",
      "function": null,
      "arguments": null,
      "transaction": {
        "type": "0x02",
        "from": "0x85752248d8cca2d9321f0278fc785738e1236ce4",
        "to": "0xb04c27b4b73eb7b1d33ccb37886ddd62dfb0005f",
        "gas": "0x3ae9b",
        "value": "0x6f05b59d3b20000",
        "data": "0x1587e558",
        "nonce": "0xafa",
        "accessList": []
      },
      "additionalContracts": [],
      "isFixedGasLimit": false
    }
  ],
  "receipts": [],
  "libraries": [],
  "pending": [],
  "returns": {},
  "timestamp": 1693524435,
  "chain": 5,
  "multi": false,
  "commit": "a5a0e9f"
}