{
  "transactions": [
    {
      "hash": null,
      "transactionType": "CALL",
      "contractName": null,
      "contractAddress": "0x7B6b497F73D096B37be21E4738ed520233A97016",
      "function": null,
      "arguments": null,
      "transaction": {
        "type": "0x02",
        "from": "0x85752248d8cca2d9321f0278fc785738e1236ce4",
        "to": "0x7b6b497f73d096b37be21e4738ed520233a97016",
        "gas": "0x3e4ed",
        "value": "0x6f05b59d3b20000",
        "data": "0x1587e558",
        "nonce": "0xa84",
        "accessList": []
      },
      "additionalContracts": [],
      "isFixedGasLimit": false
    }
  ],
  "receipts": [],
  "libraries": [],
  "pending": [],
  "returns": {},
  "timestamp": 1693245102,
  "chain": 5,
  "multi": false,
  "commit": "303b1ee"
}