{
  "assetChainHyperlane": "0x7eD38D265BeAa1091d45550E86055fBEaf5ECCdE",
  "assetManager": "0x7975Ebc4662Ae7F447D3A913b6e37AfcF60fF199",
  "manager": "0x7975Ebc4662Ae7F447D3A913b6e37AfcF60fF199",
  "oracle": "0xB4D8CC6724709a74529E70A6bB4201DD1CB4F6Ff",
  "portal": "0xAe32e879BcF0DE4A92e8c42FB9fDFCD053Ffe3BD",
  "processingChainHyperlane": "0x7eD38D265BeAa1091d45550E86055fBEaf5ECCdE",
  "rollup": "0x9f2dfA0Af4E5886DA93A4f513D197Cd481997C67",
  "staking": "0xF05f18a1861f6c9325b07ee967b94a2a4F47D83e"
}