{
  "assetManager": "0xf2804a2c3AEF49a832F504ad3CBe6397FE3Ee4a4",
  "manager": "0xf2804a2c3AEF49a832F504ad3CBe6397FE3Ee4a4",
  "oracle": "0x2A4BebB2F2FcB59bF87b29943a7512f543b37438",
  "portal": "0xAe32e879BcF0DE4A92e8c42FB9fDFCD053Ffe3BD",
  "processingChainHyperlane": "0x528802Aaf85Ef0A23E5d834A404E958Ba6945006",
  "rollup": "0x9f2dfA0Af4E5886DA93A4f513D197Cd481997C67",
  "staking": "0x268802B0f95E6434ED42E84f75B02DAa28f5779A"
}