{
  "transactions": [
    {
      "hash": null,
      "transactionType": "CALL",
      "contractName": null,
      "contractAddress": "0xC8900A18Ee3bB5874F23E0cd126158dC648c912f",
      "function": null,
      "arguments": null,
      "transaction": {
        "type": "0x00",
        "from": "0x85752248d8cca2d9321f0278fc785738e1236ce4",
        "to": "0xc8900a18ee3bb5874f23e0cd126158dc648c912f",
        "gas": "0x3ae9b",
        "value": "0x6f05b59d3b20000",
        "data": "0x1587e558",
        "nonce": "0x494"
      },
      "additionalContracts": [],
      "isFixedGasLimit": false
    }
  ],
  "receipts": [],
  "libraries": [],
  "pending": [],
  "returns": {},
  "timestamp": 1693521788,
  "chain": 97,
  "multi": false,
  "commit": "ee0df5e"
}