{
  "transactions": [
    {
      "hash": null,
      "transactionType": "CALL",
      "contractName": null,
      "contractAddress": "0xb3eb171620D75cb7152e709E2b90c8035d7ceA50",
      "function": null,
      "arguments": null,
      "transaction": {
        "type": "0x00",
        "from": "0x85752248d8cca2d9321f0278fc785738e1236ce4",
        "to": "0xb3eb171620d75cb7152e709e2b90c8035d7cea50",
        "gas": "0x3e4ed",
        "value": "0x6f05b59d3b20000",
        "data": "0x1587e558",
        "nonce": "0x414"
      },
      "additionalContracts": [],
      "isFixedGasLimit": false
    }
  ],
  "receipts": [],
  "libraries": [],
  "pending": [],
  "returns": {},
  "timestamp": 1693101304,
  "chain": 97,
  "multi": false,
  "commit": "47a96f1"
}