{
  "transactions": [
    {
      "hash": null,
      "transactionType": "CALL",
      "contractName": null,
      "contractAddress": "0x9bf0F4739cB2FE32484C7567c2719be9EAEFf06B",
      "function": null,
      "arguments": null,
      "transaction": {
        "type": "0x00",
        "from": "0xc789bbc077ddaa59b9dac1fae6fddda20cc664d7",
        "to": "0x9bf0f4739cb2fe32484c7567c2719be9eaeff06b",
        "gas": "0x10872",
        "value": "0x0",
        "data": "0x75829def000000000000000000000000a1a389eec7fea1d94b8b58b102c6bdf7d2056676",
        "nonce": "0x4"
      },
      "additionalContracts": [],
      "isFixedGasLimit": false
    }
  ],
  "receipts": [],
  "libraries": [],
  "pending": [],
  "returns": {},
  "timestamp": 1693879725,
  "chain": 56,
  "multi": false,
  "commit": "bc787bd"
}